# Blender MTL File: 'hand.blend'
# Material Count: 1

newmtl Material.004
Ns 23.529412
Ka 0.000000 0.000000 0.000000
Kd 0.569813 0.450562 0.382238
Ks 0.155108 0.145097 0.106960
Ni 1.000000
d 1.000000
illum 2
map_Kd hand_normal.jpg
map_Ks hand_specular.jpg
map_Ka hand_color.jpg